animation{
  name = "on_ground",
  src_image = "entities/zoria.png",
  directions = {
    { x = 32, y = 160, frame_width = 16, frame_height = 16, origin_x = 8, origin_y = 13 },
  },
}
animation{
  name = "destroy",
  src_image = "entities/voadi.png",
  frame_delay = 100,
  directions = {
    { x = 0, y = 80, frame_width = 32, frame_height = 32, origin_x = 16, origin_y = 20, num_frames = 3 },
  },
}
